<?xml version="1.0" encoding="UTF-8" standalone="no"?>
<!-- Created with Inkscape (http://www.inkscape.org/) -->

<svg
   xmlns:dc="http://purl.org/dc/elements/1.1/"
   xmlns:cc="http://creativecommons.org/ns#"
   xmlns:rdf="http://www.w3.org/1999/02/22-rdf-syntax-ns#"
   xmlns:svg="http://www.w3.org/2000/svg"
   xmlns="http://www.w3.org/2000/svg"
   xmlns:sodipodi="http://sodipodi.sourceforge.net/DTD/sodipodi-0.dtd"
   xmlns:inkscape="http://www.inkscape.org/namespaces/inkscape"
   width="28.000105"
   height="20"
   id="svg2"
   version="1.1"
   inkscape:version="0.48.2 r9819"
   sodipodi:docname="tab-last-selected.svg">
  <defs
     id="defs4" />
  <sodipodi:namedview
     id="base"
     pagecolor="#ffffff"
     bordercolor="#666666"
     borderopacity="1.0"
     inkscape:pageopacity="0.0"
     inkscape:pageshadow="2"
     inkscape:zoom="11.2"
     inkscape:cx="18.806072"
     inkscape:cy="8.6224387"
     inkscape:document-units="px"
     inkscape:current-layer="layer1"
     showgrid="true"
     showguides="true"
     inkscape:guide-bbox="true"
     inkscape:window-width="1024"
     inkscape:window-height="707"
     inkscape:window-x="0"
     inkscape:window-y="27"
     inkscape:window-maximized="1"
     fit-margin-top="0"
     fit-margin-left="0"
     fit-margin-right="0"
     fit-margin-bottom="0">
    <inkscape:grid
       type="xygrid"
       id="grid3753"
       empspacing="5"
       visible="true"
       enabled="true"
       snapvisiblegridlinesonly="true" />
  </sodipodi:namedview>
  <metadata
     id="metadata7">
    <rdf:RDF>
      <cc:Work
         rdf:about="">
        <dc:format>image/svg+xml</dc:format>
        <dc:type
           rdf:resource="http://purl.org/dc/dcmitype/StillImage" />
        <dc:title></dc:title>
      </cc:Work>
    </rdf:RDF>
  </metadata>
  <g
     inkscape:label="Layer 1"
     inkscape:groupmode="layer"
     id="layer1"
     transform="translate(4.0000534,-1028.3622)">
    <rect
       style="fill:#dfdfdf;fill-opacity:1;stroke:none"
       id="rect3773"
       width="20"
       height="28.000105"
       x="1028.3622"
       y="-24.000051"
       transform="matrix(0,1,-1,0,0,0)" />
    <rect
       style="fill:#0099cc;fill-opacity:1;stroke:none"
       id="rect3760"
       width="18"
       height="7"
       x="1029.3622"
       y="-3.0000525"
       transform="matrix(0,1,-1,0,0,0)" />
    <rect
       style="fill:#3dafd5;fill-opacity:1;stroke:none"
       id="rect3762"
       width="18"
       height="1"
       x="1029.3622"
       y="2.9999475"
       transform="matrix(0,1,-1,0,0,0)" />
    <rect
       style="fill:#e7e7e7;fill-opacity:1;stroke:none"
       id="rect3764"
       width="18"
       height="1"
       x="1029.3622"
       y="-3.0000525"
       transform="matrix(0,1,-1,0,0,0)" />
    <rect
       style="fill:#b1bec2;fill-opacity:1;stroke:none"
       id="rect3771"
       width="18"
       height="1"
       x="1029.3622"
       y="-2.0000525"
       transform="matrix(0,1,-1,0,0,0)" />
    <rect
       style="fill:#d4d6d6;fill-opacity:1;stroke:none"
       id="rect3775"
       width="1"
       height="4"
       x="1047.3622"
       y="-1.0000525"
       transform="matrix(0,1,-1,0,0,0)" />
    <rect
       style="fill:#dcddde;fill-opacity:1;stroke:none"
       id="rect3779"
       width="1"
       height="1"
       x="1047.3622"
       y="2.9999475"
       transform="matrix(0,1,-1,0,0,0)" />
    <rect
       style="fill:#d4d6d6;fill-opacity:1;stroke:none"
       id="rect3775-0"
       width="1"
       height="4"
       x="1028.3622"
       y="-1.0000525"
       transform="matrix(0,1,-1,0,0,0)" />
    <rect
       style="fill:#dcddde;fill-opacity:1;stroke:none"
       id="rect3779-6"
       width="1"
       height="1"
       x="1028.3622"
       y="2.9999475"
       transform="matrix(0,1,-1,0,0,0)" />
    <rect
       style="fill:#0498c9;fill-opacity:1;stroke:none"
       id="rect3802"
       width="1"
       height="1"
       x="1046.3622"
       y="-1.0000525"
       transform="matrix(0,1,-1,0,0,0)" />
    <rect
       style="fill:#1097c5;fill-opacity:1;stroke:none"
       id="rect3804"
       width="1"
       height="3"
       x="1046.3622"
       y="-5.2452087e-05"
       transform="matrix(0,1,-1,0,0,0)" />
    <rect
       style="fill:#48aed0;fill-opacity:1;stroke:none"
       id="rect3806"
       width="1"
       height="1"
       x="1046.3622"
       y="2.9999475"
       transform="matrix(0,1,-1,0,0,0)" />
    <rect
       style="fill:#009bcf;fill-opacity:1;stroke:none"
       id="rect3808"
       width="1"
       height="4"
       x="1045.3622"
       y="-1.0000525"
       transform="matrix(0,1,-1,0,0,0)" />
    <rect
       style="fill:#009fd6;fill-opacity:1;stroke:none"
       id="rect3812"
       width="1"
       height="1"
       x="1045.3622"
       y="-1.0000525"
       transform="matrix(0,1,-1,0,0,0)" />
    <rect
       style="fill:#3db1d8;fill-opacity:1;stroke:none"
       id="rect3814"
       width="1"
       height="1"
       x="1045.3622"
       y="2.9999475"
       transform="matrix(0,1,-1,0,0,0)" />
    <rect
       style="fill:#0498c9;fill-opacity:1;stroke:none"
       id="rect3802-1"
       width="1"
       height="1"
       x="-1030.3622"
       y="-1.0000525"
       transform="matrix(0,-1,-1,0,0,0)" />
    <rect
       style="fill:#1097c5;fill-opacity:1;stroke:none"
       id="rect3804-2"
       width="1"
       height="3"
       x="-1030.3622"
       y="-5.2452087e-05"
       transform="matrix(0,-1,-1,0,0,0)" />
    <rect
       style="fill:#48aed0;fill-opacity:1;stroke:none"
       id="rect3806-9"
       width="1"
       height="1"
       x="-1030.3622"
       y="2.9999475"
       transform="matrix(0,-1,-1,0,0,0)" />
    <rect
       style="fill:#009bcf;fill-opacity:1;stroke:none"
       id="rect3808-7"
       width="1"
       height="4"
       x="-1031.3622"
       y="-1.0000525"
       transform="matrix(0,-1,-1,0,0,0)" />
    <rect
       style="fill:#009fd6;fill-opacity:1;stroke:none"
       id="rect3812-3"
       width="1"
       height="1"
       x="-1031.3622"
       y="-1.0000525"
       transform="matrix(0,-1,-1,0,0,0)" />
    <rect
       style="fill:#3db1d8;fill-opacity:1;stroke:none"
       id="rect3814-8"
       width="1"
       height="1"
       x="-1031.3622"
       y="2.9999475"
       transform="matrix(0,-1,-1,0,0,0)" />
    <rect
       style="fill:#009dd3;fill-opacity:1;stroke:none"
       id="rect3849"
       width="14"
       height="1"
       x="1031.3622"
       y="-1.0000525"
       transform="matrix(0,1,-1,0,0,0)" />
    <rect
       style="fill:#ececec;fill-opacity:1;stroke:none"
       id="rect3870"
       width="20"
       height="1"
       x="1028.3622"
       y="-24.000051"
       transform="matrix(0,1,-1,0,0,0)" />
  </g>
</svg>
