<?xml version="1.0" encoding="UTF-8" standalone="no"?>
<!-- Created with Inkscape (http://www.inkscape.org/) -->

<svg
   xmlns:dc="http://purl.org/dc/elements/1.1/"
   xmlns:cc="http://creativecommons.org/ns#"
   xmlns:rdf="http://www.w3.org/1999/02/22-rdf-syntax-ns#"
   xmlns:svg="http://www.w3.org/2000/svg"
   xmlns="http://www.w3.org/2000/svg"
   xmlns:sodipodi="http://sodipodi.sourceforge.net/DTD/sodipodi-0.dtd"
   xmlns:inkscape="http://www.inkscape.org/namespaces/inkscape"
   width="10"
   height="30"
   id="svg2"
   version="1.1"
   inkscape:version="0.48.2 r9819"
   sodipodi:docname="entry-normal.svg">
  <defs
     id="defs4">
    <linearGradient
       id="linearGradient3757">
      <stop
         style="stop-color:#ffffff;stop-opacity:1;"
         offset="0"
         id="stop3759" />
      <stop
         style="stop-color:#ffffff;stop-opacity:0;"
         offset="1"
         id="stop3761" />
    </linearGradient>
  </defs>
  <sodipodi:namedview
     id="base"
     pagecolor="#606060"
     bordercolor="#666666"
     borderopacity="1.0"
     inkscape:pageopacity="0"
     inkscape:pageshadow="2"
     inkscape:zoom="45.254834"
     inkscape:cx="4.3896219"
     inkscape:cy="3.7391358"
     inkscape:document-units="px"
     inkscape:current-layer="layer1"
     showgrid="true"
     inkscape:window-width="1024"
     inkscape:window-height="707"
     inkscape:window-x="0"
     inkscape:window-y="27"
     inkscape:window-maximized="1"
     fit-margin-top="0"
     fit-margin-left="0"
     fit-margin-right="0"
     fit-margin-bottom="0"
     showguides="true"
     inkscape:guide-bbox="true">
    <inkscape:grid
       type="xygrid"
       id="grid2985"
       empspacing="8"
       visible="true"
       enabled="true"
       snapvisiblegridlinesonly="true" />
  </sodipodi:namedview>
  <metadata
     id="metadata7">
    <rdf:RDF>
      <cc:Work
         rdf:about="">
        <dc:format>image/svg+xml</dc:format>
        <dc:type
           rdf:resource="http://purl.org/dc/dcmitype/StillImage" />
        <dc:title />
      </cc:Work>
    </rdf:RDF>
  </metadata>
  <g
     inkscape:label="Calque 1"
     inkscape:groupmode="layer"
     id="layer1"
     transform="translate(-3,-1022.3622)">
    <rect
       style="fill:#000000;fill-opacity:0.07058824;stroke:none"
       id="rect2991"
       width="6"
       height="1"
       x="2"
       y="29"
       transform="translate(3,1022.3622)" />
    <rect
       style="fill:#000000;fill-opacity:0.05098039;stroke:none"
       id="rect3761"
       width="1"
       height="1"
       x="1"
       y="29"
       transform="translate(3,1022.3622)" />
    <rect
       style="fill:#000000;fill-opacity:0.27058825;stroke:none"
       id="rect3763"
       width="1"
       height="1"
       x="1"
       y="28"
       transform="translate(3,1022.3622)" />
    <rect
       style="fill:#000000;fill-opacity:0.2;stroke:none"
       id="rect3765"
       width="6"
       height="1"
       x="2"
       y="28"
       transform="translate(3,1022.3622)" />
    <rect
       style="fill:#000000;fill-opacity:0.05098039;stroke:none"
       id="rect3767"
       width="1"
       height="1"
       x="0"
       y="28"
       transform="translate(3,1022.3622)" />
    <rect
       style="fill:#000000;fill-opacity:0.07058824;stroke:none"
       id="rect3769"
       width="1"
       height="2"
       x="0"
       y="26"
       transform="translate(3,1022.3622)" />
    <rect
       style="fill:#e6e6e6;fill-opacity:0.01176471;stroke:none"
       id="rect3771"
       width="1"
       height="1"
       x="0"
       y="25"
       transform="translate(3,1022.3622)" />
    <rect
       style="fill:#000000;fill-opacity:0.03137255;stroke:none"
       id="rect3773"
       width="1"
       height="1"
       x="1"
       y="25"
       transform="translate(3,1022.3622)" />
    <rect
       style="fill:#000000;fill-opacity:0.2;stroke:none"
       id="rect3775"
       width="1"
       height="2"
       x="1"
       y="26"
       transform="translate(3,1022.3622)" />
    <rect
       style="fill:#000000;fill-opacity:0.27058824;stroke:none"
       id="rect3763-7"
       width="1"
       height="1"
       x="11"
       y="1050.3622" />
    <rect
       style="fill:#000000;fill-opacity:0.2;stroke:none"
       id="rect3775-4"
       width="1"
       height="2"
       x="11"
       y="1048.3622" />
    <rect
       style="fill:#e6e6e6;fill-opacity:0.01176471;stroke:none"
       id="rect3771-2"
       width="1"
       height="1"
       x="-13"
       y="1047.3622"
       transform="scale(-1,1)" />
    <rect
       style="fill:#000000;fill-opacity:0.03137255;stroke:none"
       id="rect3773-6"
       width="1"
       height="1"
       x="-12"
       y="1047.3622"
       transform="scale(-1,1)" />
    <rect
       style="fill:#000000;fill-opacity:0.07058824;stroke:none"
       id="rect3769-5"
       width="1"
       height="2"
       x="12"
       y="1048.3622" />
    <rect
       style="fill:#000000;fill-opacity:0.05098039;stroke:none"
       id="rect3767-8"
       width="1"
       height="1"
       x="12"
       y="1050.3622" />
    <rect
       style="fill:#000000;fill-opacity:0.05098039;stroke:none"
       id="rect3761-6"
       width="1"
       height="1"
       x="11"
       y="1051.3622" />
  </g>
</svg>
