<?xml version="1.0" encoding="UTF-8" standalone="no"?>
<!-- Created with Inkscape (http://www.inkscape.org/) -->

<svg
   xmlns:dc="http://purl.org/dc/elements/1.1/"
   xmlns:cc="http://creativecommons.org/ns#"
   xmlns:rdf="http://www.w3.org/1999/02/22-rdf-syntax-ns#"
   xmlns:svg="http://www.w3.org/2000/svg"
   xmlns="http://www.w3.org/2000/svg"
   xmlns:xlink="http://www.w3.org/1999/xlink"
   xmlns:sodipodi="http://sodipodi.sourceforge.net/DTD/sodipodi-0.dtd"
   xmlns:inkscape="http://www.inkscape.org/namespaces/inkscape"
   version="1.1"
   width="60"
   height="17"
   id="svg3273"
   inkscape:version="0.48.2 r9819"
   sodipodi:docname="toggle-off.svg">
  <sodipodi:namedview
     pagecolor="#ffffff"
     bordercolor="#666666"
     borderopacity="1"
     objecttolerance="10"
     gridtolerance="10"
     guidetolerance="10"
     inkscape:pageopacity="0"
     inkscape:pageshadow="2"
     inkscape:window-width="1024"
     inkscape:window-height="707"
     id="namedview68"
     showgrid="false"
     inkscape:zoom="16"
     inkscape:cx="25.010916"
     inkscape:cy="3.7719281"
     inkscape:window-x="0"
     inkscape:window-y="27"
     inkscape:window-maximized="1"
     inkscape:current-layer="svg3273"
     fit-margin-top="0"
     fit-margin-left="0"
     fit-margin-right="0"
     fit-margin-bottom="0"
     showguides="true"
     inkscape:guide-bbox="true">
    <inkscape:grid
       type="xygrid"
       id="grid3826"
       empspacing="5"
       visible="true"
       enabled="true"
       snapvisiblegridlinesonly="true" />
    <sodipodi:guide
       orientation="1,0"
       position="38,7"
       id="guide6187" />
  </sodipodi:namedview>
  <defs
     id="defs3275">
    <linearGradient
       id="linearGradient3902">
      <stop
         style="stop-color:#ffffff;stop-opacity:1;"
         offset="0"
         id="stop3904" />
      <stop
         style="stop-color:#fafafa;stop-opacity:0.86274511;"
         offset="1"
         id="stop3906" />
    </linearGradient>
    <linearGradient
       id="linearGradient3892">
      <stop
         style="stop-color:#c8c8c8;stop-opacity:0.3019608;"
         offset="0"
         id="stop3894" />
      <stop
         style="stop-color:#aaaaaa;stop-opacity:0.2;"
         offset="1"
         id="stop3896" />
    </linearGradient>
    <linearGradient
       id="linearGradient3853">
      <stop
         style="stop-color:#beeb8d;stop-opacity:1;"
         offset="0"
         id="stop3855" />
      <stop
         style="stop-color:#cbccc8;stop-opacity:0.50980395;"
         offset="1"
         id="stop3857" />
    </linearGradient>
    <linearGradient
       id="linearGradient4063">
      <stop
         id="stop4065"
         style="stop-color:#b9de92;stop-opacity:1;"
         offset="0" />
      <stop
         id="stop4067"
         style="stop-color:#c0e49a;stop-opacity:1;"
         offset="1" />
    </linearGradient>
    <linearGradient
       id="linearGradient3990">
      <stop
         id="stop3992"
         style="stop-color:#ffffff;stop-opacity:1"
         offset="0" />
      <stop
         id="stop3994"
         style="stop-color:#ffffff;stop-opacity:0.29411766;"
         offset="1" />
    </linearGradient>
    <linearGradient
       id="linearGradient3984">
      <stop
         id="stop3986"
         style="stop-color:#e3e3e3;stop-opacity:1;"
         offset="0" />
      <stop
         id="stop3988"
         style="stop-color:#fefefe;stop-opacity:1;"
         offset="1" />
    </linearGradient>
    <linearGradient
       id="linearGradient4095">
      <stop
         id="stop4097"
         style="stop-color:#131313;stop-opacity:0.50196081;"
         offset="0" />
      <stop
         id="stop4099"
         style="stop-color:#131313;stop-opacity:0"
         offset="1" />
    </linearGradient>
    <linearGradient
       x1="17.371481"
       y1="1.4948978"
       x2="17.306519"
       y2="4.8073978"
       id="linearGradient4561"
       xlink:href="#linearGradient3990"
       gradientUnits="userSpaceOnUse"
       gradientTransform="translate(-63.999996,0)" />
    <linearGradient
       x1="-47.059258"
       y1="20.14957"
       x2="-46.978706"
       y2="1.0181593"
       id="linearGradient4568"
       xlink:href="#linearGradient3984"
       gradientUnits="userSpaceOnUse"
       gradientTransform="matrix(0.9757771,0,0,0.98628529,-0.651405,0.09987579)" />
    <linearGradient
       x1="-17.784681"
       y1="9.8260183"
       x2="-11.504409"
       y2="9.6024895"
       id="linearGradient4572"
       xlink:href="#linearGradient4095"
       gradientUnits="userSpaceOnUse"
       gradientTransform="matrix(0.88797735,0,0,0.87902198,-19.10437,2.3346908)" />
    <linearGradient
       x1="40.624996"
       y1="20.6875"
       x2="40.8125"
       y2="10.5"
       id="linearGradient4576"
       xlink:href="#linearGradient4063"
       gradientUnits="userSpaceOnUse"
       gradientTransform="translate(-63.999996,0)" />
    <linearGradient
       x1="-17.784681"
       y1="9.8260183"
       x2="-11.504409"
       y2="9.6024895"
       id="linearGradient4101"
       xlink:href="#linearGradient4095-3"
       gradientUnits="userSpaceOnUse"
       gradientTransform="matrix(0.88797735,0,0,0.87902198,-19.10437,2.3346908)" />
    <linearGradient
       x1="-47.059258"
       y1="20.14957"
       x2="-46.978706"
       y2="1.0181593"
       id="linearGradient4060"
       xlink:href="#linearGradient4054-9"
       gradientUnits="userSpaceOnUse"
       gradientTransform="matrix(0.9757771,0,0,0.98628529,-0.65140489,0.09987579)" />
    <linearGradient
       id="linearGradient4054-9">
      <stop
         id="stop4056-6"
         style="stop-color:#cdcdcd;stop-opacity:1"
         offset="0" />
      <stop
         id="stop4058-4"
         style="stop-color:#f9f9f9;stop-opacity:1"
         offset="1" />
    </linearGradient>
    <linearGradient
       id="linearGradient4095-3">
      <stop
         id="stop4097-1"
         style="stop-color:#131313;stop-opacity:1"
         offset="0" />
      <stop
         id="stop4099-8"
         style="stop-color:#131313;stop-opacity:0"
         offset="1" />
    </linearGradient>
    <linearGradient
       x1="-47.059258"
       y1="20.14957"
       x2="-46.978706"
       y2="1.0181593"
       id="linearGradient4868"
       xlink:href="#linearGradient4054-9"
       gradientUnits="userSpaceOnUse"
       gradientTransform="matrix(0.9757771,0,0,0.98628529,-3.0264068,-27.657147)" />
    <linearGradient
       x1="-17.784681"
       y1="9.8260183"
       x2="-11.504409"
       y2="9.6024895"
       id="linearGradient4872"
       xlink:href="#linearGradient4095-3"
       gradientUnits="userSpaceOnUse"
       gradientTransform="matrix(0.88797735,0,0,0.87902198,-21.479372,-25.422332)" />
    <linearGradient
       x1="17.371481"
       y1="1.4948978"
       x2="17.306519"
       y2="4.8073978"
       id="linearGradient4909"
       xlink:href="#linearGradient3990"
       gradientUnits="userSpaceOnUse"
       gradientTransform="translate(-63.999996,0)" />
    <linearGradient
       x1="-47.059258"
       y1="20.14957"
       x2="-46.978706"
       y2="1.0181593"
       id="linearGradient4916"
       xlink:href="#linearGradient3984"
       gradientUnits="userSpaceOnUse"
       gradientTransform="matrix(0.9757771,0,0,0.98628529,-0.651405,0.09987579)" />
    <linearGradient
       x1="-17.784681"
       y1="9.8260183"
       x2="-11.504409"
       y2="9.6024895"
       id="linearGradient4920"
       xlink:href="#linearGradient4095"
       gradientUnits="userSpaceOnUse"
       gradientTransform="matrix(0.88797735,0,0,0.87902198,-19.10437,2.3346908)" />
    <linearGradient
       x1="40.624996"
       y1="20.6875"
       x2="40.8125"
       y2="10.5"
       id="linearGradient4924"
       xlink:href="#linearGradient4063"
       gradientUnits="userSpaceOnUse"
       gradientTransform="translate(-63.999996,0)" />
    <linearGradient
       inkscape:collect="always"
       xlink:href="#linearGradient3990"
       id="linearGradient3836"
       gradientUnits="userSpaceOnUse"
       gradientTransform="translate(-63.999996,0)"
       x1="17.371481"
       y1="1.4948978"
       x2="17.306519"
       y2="4.8073978" />
    <linearGradient
       inkscape:collect="always"
       xlink:href="#linearGradient3984"
       id="linearGradient3843"
       gradientUnits="userSpaceOnUse"
       gradientTransform="matrix(0.9757771,0,0,0.98628529,-0.651405,0.09987579)"
       x1="-47.059258"
       y1="20.14957"
       x2="-46.978706"
       y2="1.0181593" />
    <linearGradient
       inkscape:collect="always"
       xlink:href="#linearGradient4095"
       id="linearGradient3847"
       gradientUnits="userSpaceOnUse"
       gradientTransform="matrix(0.88797735,0,0,0.87902198,-19.10437,2.3346908)"
       x1="-17.784681"
       y1="9.8260183"
       x2="-11.504409"
       y2="9.6024895" />
    <linearGradient
       inkscape:collect="always"
       xlink:href="#linearGradient4063"
       id="linearGradient3851"
       gradientUnits="userSpaceOnUse"
       gradientTransform="translate(-63.999996,0)"
       x1="40.624996"
       y1="20.6875"
       x2="40.8125"
       y2="10.5" />
    <linearGradient
       inkscape:collect="always"
       xlink:href="#linearGradient3853"
       id="linearGradient3859"
       x1="-18.026453"
       y1="20.022465"
       x2="-17.833149"
       y2="2.1563263"
       gradientUnits="userSpaceOnUse" />
    <linearGradient
       inkscape:collect="always"
       xlink:href="#linearGradient3990"
       id="linearGradient3844"
       gradientUnits="userSpaceOnUse"
       gradientTransform="translate(-63.999996,0)"
       x1="17.371481"
       y1="1.4948978"
       x2="17.306519"
       y2="4.8073978" />
    <linearGradient
       inkscape:collect="always"
       xlink:href="#linearGradient3984"
       id="linearGradient3852"
       gradientUnits="userSpaceOnUse"
       gradientTransform="matrix(0.9757771,0,0,0.98628529,-0.651405,0.09987579)"
       x1="-47.059258"
       y1="20.14957"
       x2="-46.978706"
       y2="1.0181593" />
    <linearGradient
       inkscape:collect="always"
       xlink:href="#linearGradient4095"
       id="linearGradient3856"
       gradientUnits="userSpaceOnUse"
       gradientTransform="matrix(0.88797735,0,0,0.87902198,-19.10437,2.3346908)"
       x1="-17.784681"
       y1="9.8260183"
       x2="-11.504409"
       y2="9.6024895" />
    <linearGradient
       inkscape:collect="always"
       xlink:href="#linearGradient3853"
       id="linearGradient3860"
       gradientUnits="userSpaceOnUse"
       x1="-18.026453"
       y1="20.022465"
       x2="-17.833149"
       y2="2.1563263" />
    <linearGradient
       inkscape:collect="always"
       xlink:href="#linearGradient4063"
       id="linearGradient3863"
       gradientUnits="userSpaceOnUse"
       gradientTransform="translate(-63.999996,0)"
       x1="40.624996"
       y1="20.6875"
       x2="40.8125"
       y2="10.5" />
    <linearGradient
       inkscape:collect="always"
       xlink:href="#linearGradient3990"
       id="linearGradient3080"
       gradientUnits="userSpaceOnUse"
       gradientTransform="translate(-63.999996,0)"
       x1="17.371481"
       y1="1.4948978"
       x2="17.306519"
       y2="4.8073978" />
    <linearGradient
       inkscape:collect="always"
       xlink:href="#linearGradient3984"
       id="linearGradient3087"
       gradientUnits="userSpaceOnUse"
       gradientTransform="matrix(0.9757771,0,0,0.98628529,-0.651405,0.09987579)"
       x1="-47.059258"
       y1="20.14957"
       x2="-46.978706"
       y2="1.0181593" />
    <linearGradient
       inkscape:collect="always"
       xlink:href="#linearGradient4095"
       id="linearGradient3091"
       gradientUnits="userSpaceOnUse"
       gradientTransform="matrix(0.88797735,0,0,0.87902198,-19.10437,2.3346908)"
       x1="-17.784681"
       y1="9.8260183"
       x2="-11.504409"
       y2="9.6024895" />
    <linearGradient
       inkscape:collect="always"
       xlink:href="#linearGradient3853"
       id="linearGradient3094"
       gradientUnits="userSpaceOnUse"
       x1="-18.026453"
       y1="20.022465"
       x2="-17.833149"
       y2="2.1563263" />
    <linearGradient
       inkscape:collect="always"
       xlink:href="#linearGradient4063"
       id="linearGradient3097"
       gradientUnits="userSpaceOnUse"
       gradientTransform="translate(-63.999996,0)"
       x1="40.624996"
       y1="20.6875"
       x2="40.8125"
       y2="10.5" />
    <linearGradient
       inkscape:collect="always"
       xlink:href="#linearGradient3990"
       id="linearGradient4079"
       gradientUnits="userSpaceOnUse"
       gradientTransform="translate(-63.999996,0)"
       x1="17.371481"
       y1="1.4948978"
       x2="17.306519"
       y2="4.8073978" />
    <linearGradient
       inkscape:collect="always"
       xlink:href="#linearGradient3984"
       id="linearGradient4082"
       gradientUnits="userSpaceOnUse"
       gradientTransform="matrix(0.9757771,0,0,0.98628529,-0.651405,0.09987579)"
       x1="-47.059258"
       y1="20.14957"
       x2="-46.978706"
       y2="1.0181593" />
    <linearGradient
       inkscape:collect="always"
       xlink:href="#linearGradient4095"
       id="linearGradient4086"
       gradientUnits="userSpaceOnUse"
       gradientTransform="matrix(0.88797735,0,0,0.87902198,-19.10437,2.3346908)"
       x1="-17.784681"
       y1="9.8260183"
       x2="-11.504409"
       y2="9.6024895" />
    <linearGradient
       inkscape:collect="always"
       xlink:href="#linearGradient3853"
       id="linearGradient4089"
       gradientUnits="userSpaceOnUse"
       x1="-18.026453"
       y1="20.022465"
       x2="-17.833149"
       y2="2.1563263" />
    <linearGradient
       inkscape:collect="always"
       xlink:href="#linearGradient4063"
       id="linearGradient4092"
       gradientUnits="userSpaceOnUse"
       gradientTransform="translate(-63.999996,0)"
       x1="40.624996"
       y1="20.6875"
       x2="40.8125"
       y2="10.5" />
    <linearGradient
       inkscape:collect="always"
       xlink:href="#linearGradient4063"
       id="linearGradient3889"
       gradientUnits="userSpaceOnUse"
       gradientTransform="translate(-63.999996,0)"
       x1="40.624996"
       y1="20.6875"
       x2="40.8125"
       y2="10.5" />
    <linearGradient
       inkscape:collect="always"
       xlink:href="#linearGradient3853"
       id="linearGradient3891"
       gradientUnits="userSpaceOnUse"
       x1="-18.026453"
       y1="20.022465"
       x2="-17.833149"
       y2="2.1563263" />
    <linearGradient
       inkscape:collect="always"
       xlink:href="#linearGradient4095"
       id="linearGradient3893"
       gradientUnits="userSpaceOnUse"
       gradientTransform="matrix(0.88797735,0,0,0.87902198,-19.10437,2.3346908)"
       x1="-17.784681"
       y1="9.8260183"
       x2="-11.504409"
       y2="9.6024895" />
    <linearGradient
       inkscape:collect="always"
       xlink:href="#linearGradient3984"
       id="linearGradient3895"
       gradientUnits="userSpaceOnUse"
       gradientTransform="matrix(0.9757771,0,0,0.98628529,-0.651405,0.09987579)"
       x1="-47.059258"
       y1="20.14957"
       x2="-46.978706"
       y2="1.0181593" />
    <linearGradient
       inkscape:collect="always"
       xlink:href="#linearGradient3990"
       id="linearGradient3897"
       gradientUnits="userSpaceOnUse"
       gradientTransform="translate(-63.999996,0)"
       x1="17.371481"
       y1="1.4948978"
       x2="17.306519"
       y2="4.8073978" />
    <linearGradient
       inkscape:collect="always"
       xlink:href="#linearGradient3892"
       id="linearGradient3898"
       x1="28.384182"
       y1="5.9877081"
       x2="28.298515"
       y2="16.326488"
       gradientUnits="userSpaceOnUse"
       gradientTransform="matrix(0.78114171,0,0,0.94118539,-1.0593733,-0.56026681)" />
    <linearGradient
       inkscape:collect="always"
       xlink:href="#linearGradient3902"
       id="linearGradient3908"
       x1="48.062874"
       y1="1.2379895"
       x2="47.972073"
       y2="20.443035"
       gradientUnits="userSpaceOnUse" />
    <linearGradient
       inkscape:collect="always"
       xlink:href="#linearGradient3892"
       id="linearGradient3982"
       gradientUnits="userSpaceOnUse"
       gradientTransform="matrix(0.78114171,0,0,0.94118539,-1.0593733,-0.56026681)"
       x1="28.384182"
       y1="5.9877081"
       x2="28.298515"
       y2="16.326488" />
    <linearGradient
       inkscape:collect="always"
       xlink:href="#linearGradient3902"
       id="linearGradient3985"
       gradientUnits="userSpaceOnUse"
       x1="48.062874"
       y1="1.2379895"
       x2="47.972073"
       y2="20.443035" />
    <linearGradient
       inkscape:collect="always"
       xlink:href="#linearGradient3892"
       id="linearGradient3989"
       gradientUnits="userSpaceOnUse"
       gradientTransform="matrix(0.78114171,0,0,0.94118539,-19.264796,-2.2507182)"
       x1="28.384182"
       y1="5.9877081"
       x2="28.298515"
       y2="16.326488" />
    <linearGradient
       inkscape:collect="always"
       xlink:href="#linearGradient3892"
       id="linearGradient3995"
       gradientUnits="userSpaceOnUse"
       gradientTransform="matrix(0.78114171,0,0,0.94118539,-19.264796,-2.2507182)"
       x1="28.384182"
       y1="5.9877081"
       x2="28.298515"
       y2="16.326488" />
    <linearGradient
       inkscape:collect="always"
       xlink:href="#linearGradient3892"
       id="linearGradient3845"
       gradientUnits="userSpaceOnUse"
       gradientTransform="matrix(0.78114171,0,0,0.94118539,-19.264796,-2.2507182)"
       x1="28.384182"
       y1="5.9877081"
       x2="28.298515"
       y2="16.326488" />
    <linearGradient
       inkscape:collect="always"
       xlink:href="#linearGradient3902"
       id="linearGradient3850"
       gradientUnits="userSpaceOnUse"
       x1="48.062874"
       y1="1.2379895"
       x2="47.972073"
       y2="20.443035" />
  </defs>
  <metadata
     id="metadata3278">
    <rdf:RDF>
      <cc:Work
         rdf:about="">
        <dc:format>image/svg+xml</dc:format>
        <dc:type
           rdf:resource="http://purl.org/dc/dcmitype/StillImage" />
        <dc:title></dc:title>
      </cc:Work>
    </rdf:RDF>
  </metadata>
  <rect
     style="fill:#c2c2c2;fill-opacity:1;stroke:none"
     id="rect4212"
     width="60"
     height="15"
     x="-60"
     y="4.6289053e-09"
     ry="0"
     transform="scale(-1,1)" />
  <path
     style="fill:#a1a1a1;fill-opacity:1;stroke:none"
     d="M 38,15 C 38.0055,14.98545 30,0 30,0 L 0,0 0,15 z"
     id="rect4214"
     inkscape:connector-curvature="0"
     sodipodi:nodetypes="ccccc" />
  <rect
     style="fill:#000000;fill-opacity:1;stroke:none;opacity:0.13"
     id="rect3828"
     width="38"
     height="1"
     x="0"
     y="16" />
  <path
     style="opacity:0.15;fill:#ffffff;fill-opacity:1;stroke:none"
     d="M 0,0 0,1 30.538729,1 30,0 z"
     id="path6189"
     inkscape:connector-curvature="0"
     sodipodi:nodetypes="ccccc" />
</svg>
