<?xml version="1.0" encoding="UTF-8" standalone="no"?>
<!-- Created with Inkscape (http://www.inkscape.org/) -->

<svg
   xmlns:dc="http://purl.org/dc/elements/1.1/"
   xmlns:cc="http://creativecommons.org/ns#"
   xmlns:rdf="http://www.w3.org/1999/02/22-rdf-syntax-ns#"
   xmlns:svg="http://www.w3.org/2000/svg"
   xmlns="http://www.w3.org/2000/svg"
   xmlns:xlink="http://www.w3.org/1999/xlink"
   version="1.1"
   width="16"
   height="16"
   id="svg2">
  <defs
     id="defs4" />
  <metadata
     id="metadata7">
    <rdf:RDF>
      <cc:Work
         rdf:about="">
        <dc:format>image/svg+xml</dc:format>
        <dc:type
           rdf:resource="http://purl.org/dc/dcmitype/StillImage" />
        <dc:title></dc:title>
      </cc:Work>
    </rdf:RDF>
  </metadata>
  <image
     xlink:href="data:image/png;base64,iVBORw0KGgoAAAANSUhEUgAAABAAAAAQCAYAAAAf8/9hAAAABHNCSVQICAgIfAhkiAAAAWFJREFU
OI2lk7FLQmEUxX+f+eCF8CAHkWxpcmiRGjTCoaGtSBqkcLAlaA6XIFwamoWGwEVoavCvqEbFIZUg
oeEFwuNBT3hBxPO2KOjLTPLAGS6Xe7jnO99VIsI8CMw1PaOAAmJA/D8Ci+Vy+cAwjNt2ux0ZiI1D
RCZR2ba9lkgkrpVSL0DTNM1NEQmIiBoQEfkhoERkqVAonGqa9gg8AQ/AvWVZe47jJLvdbqrT6WyJ
SExEUCMpBGu1WiqTyZyYprkO2MDnyLKroxZE5BCoBwf1cjabPa5Wq7v9fv8L6AD+fJt+92OPmE6n
o+Fw+BkwARf4+IMAYxairuvuF4vFlVKpFPE8b2pCInID1JXvJy4AG61WayeXy+mNRsMYNnq93rum
ac6w1nX9Dnj7LUbD87yjSqVyEQqFLoEr27aTs8ToZ9yyrLN8Pn/uOE5ydHBIv4VJ0IFt4BVo+5uz
CEzF3Nf4DZ7qAdkOo/9zAAAAAElFTkSuQmCC
"
     x="-0.13201301"
     y="-0.079207607"
     width="16"
     height="16"
     id="image2993" />
</svg>
